{
  "new_task_scenario": {
    "type": "form_filling",
    "form": "new_task_form",
    "actions": [
      {
        "type": "else",
        "requirement": {
          "type": "template",
          "template": "{{ false }}"
        },
        "action": {
          "type": "run_scenario",
          "scenario": "new_task_form"
        },
        "else_action": {
          "type": "run_scenario",
          "scenario": "authorized_scenario"
        }
      }
    ]
  }
}