{
  "delete_task_form": {
    "fields": {
      "ready_to_delete": {
        "required": true,
        "questions": [
          {
            "type": "string",
            "command": "ANSWER_TO_USER",
            "nodes": {
              "pronounceText": "Какую по счету задачу хотите удалить?",
              "items": [
                {
                  "bubble": {
                    "text": "Какую по счету задачу хотите удалить?"
                  }
                }
              ]
            }
          }
        ],
        "filler": {
          "type": "number_first"
        },
        "on_filled_actions": [
          {
            "type": "string",
            "command": "ANSWER_TO_USER",
            "nodes": {
              "pronounceText": "Готово!",
              "items": [
                {
                  "bubble": {
                    "text": "Готово!"
                  }
                }
              ]
            }
          }
        ]
      
      }
    }
  }
  }