{
  "name_form": {
    "fields": {
      "person": {
        "required": true,
        "available": false,
        "questions": [
          {
            "type": "string",
            "command": "ANSWER_TO_USER",
            "nodes": {
              "pronounceText": "Как Вас зовут?",
              "items": [
                {
                  "bubble": {
                    "text": "Как Вас зовут?"
                  }
                }
              ]
            }
          }
        ],
        "filler": {
          "type": "composite",
          "fillers": [
            {
              "type": "get_first_person"
            },
            {
              "type": "regexp",
              "exp": ".*",
              "delimiter": ""
            }
          ]
        }
      }
      }
    }
  }