{
    "qr_form": {
      "fields": {
        "ready_to_quit": {
          "required": true,
          "questions": [
            {
              "type": "string",
              "command": "ANSWER_TO_USER",
              "nodes": {
  
                "pronounceText": "Если у вас есть умные устройства для отслеживания сна, привязаные к аккаунту google fit, Вы можете воспользоваться данным QR-кодом для синхронизации с приложением. Это не обязательно.",
                "items": [
                  {
                    "bubble": {
                      "text": "Вы готовы вернуться к главному экрану?"
                    },
                    "command": {
                        "type": "smart_app_data",
                        "action": {
                          "type": "qr",
                          "user_id": "{{ global.user_id }}"
                        }
                    }
                  }
                ]
              }
            }
          ],
          "filler": {
            "type": "external",
            "filler": "yes_no_soft_filler"
          }
        }
      }
    }
}